{
  "vehicleId": 1,
  "cameras": [
    {
      "name": "Camera name",
      "url": "Camera URL"
    }
  ],
  "publicKey": "pub",
  "privateKey": "priv",
  "api": "https://www.krupson.eu/ptb/api/",
  "fetchingDataInterval": 30
}